…
``` r
GapNoOceanD %>% #%  group_by(continent) %>%
  group_by(continent) %>%
  mutate(median = median((pop))) %>%
  arrange(median) 
```

    ## # A tibble: 1,680 x 7
    ## # Groups:   continent [4]
    ##    country continent  year lifeExp      pop gdpPercap  median
    ##    <fct>   <fct>     <int>   <dbl>    <int>     <dbl>   <dbl>
    ##  1 Algeria Africa     1952    43.1  9279525     2449. 4579311
    ##  2 Algeria Africa     1957    45.7 10270856     3014. 4579311
    ##  3 Algeria Africa     1962    48.3 11000948     2551. 4579311
    ##  4 Algeria Africa     1967    51.4 12760499     3247. 4579311
    ##  5 Algeria Africa     1972    54.5 14760787     4183. 4579311
    ##  6 Algeria Africa     1977    58.0 17152804     4910. 4579311
    ##  7 Algeria Africa     1982    61.4 20033753     5745. 4579311
    ##  8 Algeria Africa     1987    65.8 23254956     5681. 4579311
    ##  9 Algeria Africa     1992    67.7 26298373     5023. 4579311
    ## 10 Algeria Africa     1997    69.2 29072015     4797. 4579311
    ## # ... with 1,670 more rows
…
